%YAML 1.1
%TAG !u! tag:unity3d.com,2011:
--- !u!21 &2100000
Material:
  serializedVersion: 6
  m_ObjectHideFlags: 0
  m_PrefabParentObject: {fileID: 0}
  m_PrefabInternal: {fileID: 0}
  m_Name: ShitbotMat
  m_Shader: {fileID: 4800000, guid: 654ea01408a3f48178c0091b03ba1f0f, type: 3}
  m_ShaderKeywords: _METALLICGLOSSMAP _NORMALMAP
  m_LightmapFlags: 5
  m_CustomRenderQueue: -1
  stringTagMap: {}
  m_SavedProperties:
    serializedVersion: 2
    m_TexEnvs:
    - first:
        name: _BumpMap
      second:
        m_Texture: {fileID: 2800000, guid: 4d1982a89cc467b4ab429abfd56adbdf, type: 3}
        m_Scale: {x: 1, y: 1}
        m_Offset: {x: 0, y: 0}
    - first:
        name: _CombinedMap
      second:
        m_Texture: {fileID: 0}
        m_Scale: {x: 1, y: 1}
        m_Offset: {x: 0, y: 0}
    - first:
        name: _DetailAlbedoMap
      second:
        m_Texture: {fileID: 0}
        m_Scale: {x: 1, y: 1}
        m_Offset: {x: 0, y: 0}
    - first:
        name: _DetailMask
      second:
        m_Texture: {fileID: 0}
        m_Scale: {x: 1, y: 1}
        m_Offset: {x: 0, y: 0}
    - first:
        name: _DetailNormalMap
      second:
        m_Texture: {fileID: 0}
        m_Scale: {x: 1, y: 1}
        m_Offset: {x: 0, y: 0}
    - first:
        name: _EmissionMap
      second:
        m_Texture: {fileID: 0}
        m_Scale: {x: 1, y: 1}
        m_Offset: {x: 0, y: 0}
    - first:
        name: _MainTex
      second:
        m_Texture: {fileID: 2800000, guid: fdb72653ed2e5c045b80e73f7b2a2f2c, type: 3}
        m_Scale: {x: 1, y: 1}
        m_Offset: {x: 0, y: 0}
    - first:
        name: _MetallicGlossMap
      second:
        m_Texture: {fileID: 2800000, guid: c0caa9a69f3308345b3365ed4ac70d8e, type: 3}
        m_Scale: {x: 1, y: 1}
        m_Offset: {x: 0, y: 0}
    - first:
        name: _MetallicGlossMap2
      second:
        m_Texture: {fileID: 0}
        m_Scale: {x: 1, y: 1}
        m_Offset: {x: 0, y: 0}
    - first:
        name: _OcclusionMap
      second:
        m_Texture: {fileID: 2800000, guid: cf3c0b6a8a21f2c48b411cec9caabdb3, type: 3}
        m_Scale: {x: 1, y: 1}
        m_Offset: {x: 0, y: 0}
    - first:
        name: _ParallaxMap
      second:
        m_Texture: {fileID: 0}
        m_Scale: {x: 1, y: 1}
        m_Offset: {x: 0, y: 0}
    - first:
        name: _SpecGlossMap
      second:
        m_Texture: {fileID: 0}
        m_Scale: {x: 1, y: 1}
        m_Offset: {x: 0, y: 0}
    - first:
        name: _SpecGlossMap2
      second:
        m_Texture: {fileID: 0}
        m_Scale: {x: 1, y: 1}
        m_Offset: {x: 0, y: 0}
    m_Floats:
    - first:
        name: _BumpScale
      second: 0.37
    - first:
        name: _Cull
      second: 2
    - first:
        name: _CullShadowPass
      second: 3
    - first:
        name: _Cutoff
      second: 0.5
    - first:
        name: _DetailNormalMapScale
      second: 1
    - first:
        name: _DiffuseScatteringBias
      second: 0
    - first:
        name: _DiffuseScatteringBias2
      second: 0
    - first:
        name: _DiffuseScatteringContraction
      second: 8
    - first:
        name: _DiffuseScatteringContraction2
      second: 8
    - first:
        name: _DiffuseScatteringEnabled
      second: 0
    - first:
        name: _DoubleSided
      second: 0
    - first:
        name: _DstBlend
      second: 0
    - first:
        name: _GlossMapScale
      second: 1
    - first:
        name: _Glossiness
      second: 0.5
    - first:
        name: _Glossiness2
      second: 0.5
    - first:
        name: _GlossyReflections
      second: 1
    - first:
        name: _Lighting
      second: 0
    - first:
        name: _LinearSteps
      second: 20
    - first:
        name: _Lux_FlowInterval
      second: 1
    - first:
        name: _Lux_FlowNormalStrength
      second: 1
    - first:
        name: _Lux_FlowNormalTiling
      second: 2
    - first:
        name: _Lux_FlowRefraction
      second: 0.02
    - first:
        name: _Lux_FlowSpeed
      second: 0.05
    - first:
        name: _Metallic
      second: 0
    - first:
        name: _Metallic2
      second: 0
    - first:
        name: _MixMappingControl
      second: 0
    - first:
        name: _Mode
      second: 0
    - first:
        name: _OcclusionStrength
      second: 1
    - first:
        name: _Parallax
      second: 0.02
    - first:
        name: _ParallaxTiling
      second: 1
    - first:
        name: _PuddleMask
      second: 0
    - first:
        name: _PuddleMaskTiling
      second: 1
    - first:
        name: _ScatteringPower
      second: 4
    - first:
        name: _SmoothnessTextureChannel
      second: 0
    - first:
        name: _Snow
      second: 0
    - first:
        name: _SnowDetailStrength
      second: 0.3
    - first:
        name: _SnowNormalStrength
      second: 1
    - first:
        name: _SnowOpacity
      second: 0.5
    - first:
        name: _SnowSlopeDamp
      second: 0.75
    - first:
        name: _SpecularHighlights
      second: 1
    - first:
        name: _SrcBlend
      second: 1
    - first:
        name: _SyncWaterOfMaterials
      second: 0
    - first:
        name: _TranslucencyStrength
      second: 0.5
    - first:
        name: _UVSec
      second: 0
    - first:
        name: _UseCombinedMap
      second: 0
    - first:
        name: _UseMixMapping
      second: 0
    - first:
        name: _UsePOM
      second: 0
    - first:
        name: _WaterSlopeDamp
      second: 0.5
    - first:
        name: _Wetness
      second: 0
    - first:
        name: _ZWrite
      second: 1
    m_Colors:
    - first:
        name: _Color
      second: {r: 1, g: 1, b: 1, a: 1}
    - first:
        name: _Color2
      second: {r: 1, g: 1, b: 1, a: 1}
    - first:
        name: _DiffuseScatteringCol
      second: {r: 0, g: 0, b: 0, a: 0}
    - first:
        name: _DiffuseScatteringCol2
      second: {r: 0, g: 0, b: 0, a: 0}
    - first:
        name: _EmissionColor
      second: {r: 0, g: 0, b: 0, a: 1}
    - first:
        name: _SnowAccumulation
      second: {r: 0, g: 1, b: 0, a: 0}
    - first:
        name: _SnowDetailTiling
      second: {r: 4, g: 4, b: 0, a: 0}
    - first:
        name: _SnowMaskTiling
      second: {r: 0.3, g: 0.3, b: 0, a: 0}
    - first:
        name: _SnowTiling
      second: {r: 2, g: 2, b: 0, a: 0}
    - first:
        name: _SpecColor
      second: {r: 0.19999996, g: 0.19999996, b: 0.19999996, a: 1}
    - first:
        name: _SpecColor2
      second: {r: 0.19999996, g: 0.19999996, b: 0.19999996, a: 1}
    - first:
        name: _WaterAccumulationCracksPuddles
      second: {r: 0, g: 1, b: 0, a: 1}
    - first:
        name: _WaterAccumulationCracksPuddles2
      second: {r: 0, g: 1, b: 0, a: 1}
    - first:
        name: _WaterColor
      second: {r: 0, g: 0, b: 0, a: 0}
    - first:
        name: _WaterColor2
      second: {r: 0, g: 0, b: 0, a: 0}
