%YAML 1.1
%TAG !u! tag:unity3d.com,2011:
--- !u!21 &2100000
Material:
  serializedVersion: 6
  m_ObjectHideFlags: 0
  m_PrefabParentObject: {fileID: 0}
  m_PrefabInternal: {fileID: 0}
  m_Name: SF_Gunship-X3
  m_Shader: {fileID: 4800000, guid: 7fed3c93c376aa349b141720328a8785, type: 3}
  m_ShaderKeywords: _BUMPMODE_PARALLAX _EMISSION _NORMALMAP _SPECGLOSSMAP
  m_LightmapFlags: 1
  m_CustomRenderQueue: -1
  stringTagMap: {}
  m_SavedProperties:
    serializedVersion: 2
    m_TexEnvs:
    - first:
        name: _Ao2Map
      second:
        m_Texture: {fileID: 0}
        m_Scale: {x: 1, y: 1}
        m_Offset: {x: 0, y: 0}
    - first:
        name: _AoMap
      second:
        m_Texture: {fileID: 0}
        m_Scale: {x: 1, y: 1}
        m_Offset: {x: 0, y: 0}
    - first:
        name: _BaseTexture
      second:
        m_Texture: {fileID: 0}
        m_Scale: {x: 1, y: 1}
        m_Offset: {x: 0, y: 0}
    - first:
        name: _BumpMap
      second:
        m_Texture: {fileID: 2800000, guid: 3105444501dca4e44890193678639d89, type: 3}
        m_Scale: {x: 1, y: 1}
        m_Offset: {x: 0, y: 0}
    - first:
        name: _CombinedMap
      second:
        m_Texture: {fileID: 0}
        m_Scale: {x: 1, y: 1}
        m_Offset: {x: 0, y: 0}
    - first:
        name: _DecalTex
      second:
        m_Texture: {fileID: 0}
        m_Scale: {x: 1, y: 1}
        m_Offset: {x: 0, y: 0}
    - first:
        name: _DetailAlbedoMap
      second:
        m_Texture: {fileID: 0}
        m_Scale: {x: 1, y: 1}
        m_Offset: {x: 0, y: 0}
    - first:
        name: _DetailMask
      second:
        m_Texture: {fileID: 0}
        m_Scale: {x: 1, y: 1}
        m_Offset: {x: 0, y: 0}
    - first:
        name: _DetailMaterialMap
      second:
        m_Texture: {fileID: 2800000, guid: 2b77d5cb601375f4ba50c6194c126e59, type: 3}
        m_Scale: {x: 1, y: 1}
        m_Offset: {x: 0, y: 0}
    - first:
        name: _DetailNormalMap
      second:
        m_Texture: {fileID: 0}
        m_Scale: {x: 1, y: 1}
        m_Offset: {x: 0, y: 0}
    - first:
        name: _DissolveTex
      second:
        m_Texture: {fileID: 0}
        m_Scale: {x: 1, y: 1}
        m_Offset: {x: 0, y: 0}
    - first:
        name: _EmissionMap
      second:
        m_Texture: {fileID: 2800000, guid: 144572a2ecedc5e4c84bb08af4a35b79, type: 3}
        m_Scale: {x: 1, y: 1}
        m_Offset: {x: 0, y: 0}
    - first:
        name: _IncandescenceMap
      second:
        m_Texture: {fileID: 0}
        m_Scale: {x: 1, y: 1}
        m_Offset: {x: 0, y: 0}
    - first:
        name: _MainTex
      second:
        m_Texture: {fileID: 2800000, guid: d5df51bf50f866740be41a574cc0b6a0, type: 3}
        m_Scale: {x: 1, y: 1}
        m_Offset: {x: 0, y: 0}
    - first:
        name: _MetallicGlossMap
      second:
        m_Texture: {fileID: 0}
        m_Scale: {x: 1, y: 1}
        m_Offset: {x: 0, y: 0}
    - first:
        name: _MetallicMap
      second:
        m_Texture: {fileID: 2800000, guid: ab28987ae49131b40a259bf0a837c01a, type: 3}
        m_Scale: {x: 1, y: 1}
        m_Offset: {x: 0, y: 0}
    - first:
        name: _OcclusionMap
      second:
        m_Texture: {fileID: 0}
        m_Scale: {x: 1, y: 1}
        m_Offset: {x: 0, y: 0}
    - first:
        name: _OverlayTexture
      second:
        m_Texture: {fileID: 0}
        m_Scale: {x: 1, y: 1}
        m_Offset: {x: 0, y: 0}
    - first:
        name: _ParallaxMap
      second:
        m_Texture: {fileID: 0}
        m_Scale: {x: 1, y: 1}
        m_Offset: {x: 0, y: 0}
    - first:
        name: _RimTex
      second:
        m_Texture: {fileID: 0}
        m_Scale: {x: 1, y: 1}
        m_Offset: {x: 0, y: 0}
    - first:
        name: _RoughnessMap
      second:
        m_Texture: {fileID: 0}
        m_Scale: {x: 1, y: 1}
        m_Offset: {x: 0, y: 0}
    - first:
        name: _SpecGlossMap
      second:
        m_Texture: {fileID: 2800000, guid: ab28987ae49131b40a259bf0a837c01a, type: 3}
        m_Scale: {x: 1, y: 1}
        m_Offset: {x: 0, y: 0}
    - first:
        name: _SpecGlossMap2
      second:
        m_Texture: {fileID: 0}
        m_Scale: {x: 1, y: 1}
        m_Offset: {x: 0, y: 0}
    - first:
        name: _SpecularityMap
      second:
        m_Texture: {fileID: 2800000, guid: ab28987ae49131b40a259bf0a837c01a, type: 3}
        m_Scale: {x: 1, y: 1}
        m_Offset: {x: 0, y: 0}
    - first:
        name: _TeamColorMaskMap
      second:
        m_Texture: {fileID: 0}
        m_Scale: {x: 1, y: 1}
        m_Offset: {x: 0, y: 0}
    m_Floats:
    - first:
        name: _AO2
      second: 0
    - first:
        name: _AlphaTestRef
      second: 0.5
    - first:
        name: _Ao2MapUV
      second: 1
    - first:
        name: _BaseColorVertexTint
      second: 0
    - first:
        name: _Blend
      second: 0
    - first:
        name: _BumpMode
      second: 0
    - first:
        name: _BumpScale
      second: 1
    - first:
        name: _Cull
      second: 2
    - first:
        name: _CullShadowPass
      second: 2
    - first:
        name: _Cutoff
      second: 0.5
    - first:
        name: _Decal
      second: 0
    - first:
        name: _DecalAlphaVertexTint
      second: 0
    - first:
        name: _DecalSpecularity
      second: 0.5
    - first:
        name: _DecalTexUV
      second: 0
    - first:
        name: _DecalWeight
      second: 1
    - first:
        name: _DetailAlbedoMapUV
      second: 0
    - first:
        name: _DetailMode
      second: 0
    - first:
        name: _DetailNormalMapScale
      second: 1
    - first:
        name: _DetailT
      second: 0
    - first:
        name: _DetailWeight
      second: 1
    - first:
        name: _DiffuseScatteringBias
      second: 0
    - first:
        name: _DiffuseScatteringBias2
      second: 0
    - first:
        name: _DiffuseScatteringContraction
      second: 8
    - first:
        name: _DiffuseScatteringContraction2
      second: 8
    - first:
        name: _DiffuseScatteringEnabled
      second: 0
    - first:
        name: _Dissolve
      second: 0
    - first:
        name: _DissolveCutoff
      second: 0
    - first:
        name: _DissolveEdgeWidth
      second: 0.01
    - first:
        name: _DissolveGlowGainUI
      second: 0
    - first:
        name: _DissolveGlowWeightUI
      second: 0
    - first:
        name: _DissolveTexUV
      second: 0
    - first:
        name: _DoubleSided
      second: 0
    - first:
        name: _DstBlend
      second: 0
    - first:
        name: _Emission
      second: 0
    - first:
        name: _EmissionGainUI
      second: 0
    - first:
        name: _EmissionWeightUI
      second: 0
    - first:
        name: _GlossMapScale
      second: 1
    - first:
        name: _Glossiness
      second: 0.5
    - first:
        name: _Glossiness2
      second: 0.5
    - first:
        name: _GlossyReflections
      second: 1
    - first:
        name: _IncandescenceMapUV
      second: 0
    - first:
        name: _Lighting
      second: 0
    - first:
        name: _Lightmapping
      second: 1
    - first:
        name: _LinearSteps
      second: 20
    - first:
        name: _Lux_FlowInterval
      second: 1
    - first:
        name: _Lux_FlowNormalStrength
      second: 1
    - first:
        name: _Lux_FlowNormalTiling
      second: 2
    - first:
        name: _Lux_FlowRefraction
      second: 0.02
    - first:
        name: _Lux_FlowSpeed
      second: 0.05
    - first:
        name: _MainPhysicalProperties
      second: 0
    - first:
        name: _MainTexUV
      second: 0
    - first:
        name: _MainTextures
      second: 0
    - first:
        name: _MaxSamples
      second: 20
    - first:
        name: _Metal
      second: 1
    - first:
        name: _Metallic
      second: 0
    - first:
        name: _MinSamples
      second: 4
    - first:
        name: _MixMappingControl
      second: 0
    - first:
        name: _Mode
      second: 0
    - first:
        name: _OcclusionStrength
      second: 1
    - first:
        name: _Parallax
      second: 0.02
    - first:
        name: _ParallaxT
      second: 0
    - first:
        name: _ParallaxTiling
      second: 1
    - first:
        name: _PuddleMask
      second: 0
    - first:
        name: _PuddleMaskTiling
      second: 1
    - first:
        name: _Rim
      second: 0
    - first:
        name: _RimBias
      second: 0
    - first:
        name: _RimGainUI
      second: 0
    - first:
        name: _RimPower
      second: 4
    - first:
        name: _RimTexUV
      second: 0
    - first:
        name: _RimWeightUI
      second: 0
    - first:
        name: _Roughness
      second: 1
    - first:
        name: _ScatteringPower
      second: 4
    - first:
        name: _SmoothnessTextureChannel
      second: 0
    - first:
        name: _Snow
      second: 0
    - first:
        name: _SnowDetailStrength
      second: 0.3
    - first:
        name: _SnowNormalStrength
      second: 1
    - first:
        name: _SnowOpacity
      second: 0.5
    - first:
        name: _SnowSlopeDamp
      second: 0.75
    - first:
        name: _SpecularHighlights
      second: 1
    - first:
        name: _Specularity
      second: 1
    - first:
        name: _SrcBlend
      second: 1
    - first:
        name: _SyncWaterOfMaterials
      second: 0
    - first:
        name: _TeamColor
      second: 0
    - first:
        name: _TeamColorMode
      second: 1
    - first:
        name: _TranslucencyStrength
      second: 0.5
    - first:
        name: _UVSec
      second: 0
    - first:
        name: _UseCombinedMap
      second: 0
    - first:
        name: _UseMixMapping
      second: 0
    - first:
        name: _UsePOM
      second: 0
    - first:
        name: _WaterSlopeDamp
      second: 0.5
    - first:
        name: _Wetness
      second: 0
    - first:
        name: _ZWrite
      second: 1
    m_Colors:
    - first:
        name: _Color
      second: {r: 1, g: 1, b: 1, a: 1}
    - first:
        name: _Color2
      second: {r: 1, g: 1, b: 1, a: 1}
    - first:
        name: _DecalColor
      second: {r: 1, g: 1, b: 1, a: 1}
    - first:
        name: _DetailAlbedoMapVelocity
      second: {r: 0, g: 0, b: 0, a: 0}
    - first:
        name: _DiffuseScatteringCol
      second: {r: 0, g: 0, b: 0, a: 0}
    - first:
        name: _DiffuseScatteringCol2
      second: {r: 0, g: 0, b: 0, a: 0}
    - first:
        name: _DissolveGlowColor
      second: {r: 1, g: 1, b: 1, a: 1}
    - first:
        name: _DissolveGlowTintUI
      second: {r: 1, g: 1, b: 1, a: 1}
    - first:
        name: _EmissionColor
      second: {r: 1, g: 1, b: 1, a: 1}
    - first:
        name: _EmissionTintUI
      second: {r: 1, g: 1, b: 1, a: 1}
    - first:
        name: _IncandescenceMapVelocity
      second: {r: 0, g: 0, b: 0, a: 0}
    - first:
        name: _MainTexVelocity
      second: {r: 0, g: 0, b: 0, a: 0}
    - first:
        name: _RimColor
      second: {r: 1, g: 1, b: 1, a: 1}
    - first:
        name: _RimTexVelocity
      second: {r: 0, g: 0, b: 0, a: 0}
    - first:
        name: _RimTintUI
      second: {r: 1, g: 1, b: 1, a: 1}
    - first:
        name: _SnowAccumulation
      second: {r: 0, g: 1, b: 0, a: 0}
    - first:
        name: _SnowDetailTiling
      second: {r: 4, g: 4, b: 0, a: 0}
    - first:
        name: _SnowMaskTiling
      second: {r: 0.3, g: 0.3, b: 0, a: 0}
    - first:
        name: _SnowTiling
      second: {r: 2, g: 2, b: 0, a: 0}
    - first:
        name: _SpecColor
      second: {r: 0.19999996, g: 0.19999996, b: 0.19999996, a: 1}
    - first:
        name: _SpecColor2
      second: {r: 0.19999996, g: 0.19999996, b: 0.19999996, a: 1}
    - first:
        name: _TeamColor0
      second: {r: 1, g: 1, b: 1, a: 1}
    - first:
        name: _TeamColor1
      second: {r: 1, g: 1, b: 1, a: 1}
    - first:
        name: _TeamColor2
      second: {r: 1, g: 1, b: 1, a: 1}
    - first:
        name: _TeamColor3
      second: {r: 1, g: 1, b: 1, a: 1}
    - first:
        name: _WaterAccumulationCracksPuddles
      second: {r: 0, g: 1, b: 0, a: 1}
    - first:
        name: _WaterAccumulationCracksPuddles2
      second: {r: 0, g: 1, b: 0, a: 1}
    - first:
        name: _WaterColor
      second: {r: 0, g: 0, b: 0, a: 0}
    - first:
        name: _WaterColor2
      second: {r: 0, g: 0, b: 0, a: 0}
