{
    "EntityName": "BaseShip",
    "Wrapper": null,
    "_components": {
        "Zen.Components.AvailableWeaponsComp": {
            "AvailableWeapons": [
                {
                    "laserInfoPacket": {
                        "TimeToLive": 0.0,
                        "ProjectileSpeed": 0.0,
                        "StartPosition": {
                            "x": 0.0,
                            "y": 0.0,
                            "z": 0.0
                        },
                        "fireDirection": {
                            "x": 0.0,
                            "y": 0.0,
                            "z": 0.0
                        },
                        "OwningActorPos": null,
                        "FiringWeaponComp": null,
                        "laserFireType": "None"
                    },
                    "ShieldDamage": 10,
                    "HullDamage": 10,
                    "AttackRange": 50.0,
                    "AttackRate": 0.5,
                    "WeaponType": "Laser",
                    "ResolutionType": "Raycast",
                    "FiringSoundEffect": "Explosion",
                    "ProjectileSpeed": 10.0,
                    "ProjectileEntity": null,
                    "IsFitted": false,
                    "fittingAttached": null,
                    "WeaponPrefab": "Prefabs/Player",
                    "WeaponGameObject": null,
                    "ProjectilePrefab": "Prefabs/Weapons/LaserBeamPrefab",
                    "Id": "b92018a3-0ea2-4521-ad50-a4caf1130b17",
                    "$type": "Zen.Components.LaserComp"
                }
            ],
            "Id": "00000000-0000-0000-0000-000000000000",
            "$type": "Zen.Components.AvailableWeaponsComp"
        },
        "Zen.Components.UnityPrefabComp": {
            "IsPooled": true,
            "PrefabLink": "Prefabs/Ships/BaseShip",
            "layer": {
                "value": 0
            },
            "entityTags": "Ship,IsEntity,IsDamageable",
            "tags": "",
            "Id": "00000000-0000-0000-0000-000000000000",
            "$type": "Zen.Components.UnityPrefabComp"
        },
        "Zen.Components.MeshComp": {
            "MeshFilter": null,
            "MeshRenderer": null,
            "Id": "00000000-0000-0000-0000-000000000000",
            "$type": "Zen.Components.MeshComp"
        },
        "Zen.Components.ColliderComp": {
            "collider": null,
            "Id": "00000000-0000-0000-0000-000000000000",
            "$type": "Zen.Components.ColliderComp"
        },
        "Zen.Components.ShipPrefabComp": {
            "IsPooled": true,
            "FirstPersonCameraOffset": {
                "x": 0.0,
                "y": 0.45,
                "z": -0.312
            },
            "ShipPrefab": "Prefabs/Ships/BaseShip",
            "Id": "00000000-0000-0000-0000-000000000000",
            "$type": "Zen.Components.ShipPrefabComp"
        },
        "Zen.Components.InertialDamperModComp": {
            "ModuleEquipped": false,
            "ModuleEnabled": false,
            "Id": "00000000-0000-0000-0000-000000000000",
            "$type": "Zen.Components.InertialDamperModComp"
        },
        "Zen.Components.ShipComp": {
            "CurrentShields": {
                "_value": 0.0
            },
            "CurrentHull": {
                "_value": 0.0
            },
            "CameraOffset": {
                "x": 0.0,
                "y": 0.0,
                "z": 0.0
            },
            "DefaultShields": 100.0,
            "DefaultHull": 100.0,
            "DefaultRotationSpeed": 300.0,
            "DefaultMaxRotationVelocity": 1.0,
            "DefaultMaxSpeed": 10000.0,
            "DefaultAcceleration": 100.0,
            "DefaultReverseAcceleration": 50.0,
            "DefaultCargoSize": 1000.0,
            "DefaultShieldRecharge": 10.0,
            "DefaultEnergy": 500.0,
            "DefaultEnergyRecharge": 20.0,
            "HasInertialDampers": false,
            "CurrentRotationSpeed": 0.0,
            "CurrentMaxRotationVelocity": 0.0,
            "CurrentMaxSpeed": 0.0,
            "CurrentAcceleration": 0.0,
            "CurrentReverseAcceleration": 0.0,
            "CurrentCargoSize": 0.0,
            "CurrentShieldRecharge": 0.0,
            "CurrentEnergy": 0.0,
            "CurrentEnergyRecharge": 0.0,
            "Id": "00000000-0000-0000-0000-000000000000",
            "$type": "Zen.Components.ShipComp"
        },
        "Zen.Components.CombatComp": {
            "TargetedEnemy": {
                "_value": "00000000-0000-0000-0000-000000000000"
            },
            "Id": "00000000-0000-0000-0000-000000000000",
            "$type": "Zen.Components.CombatComp"
        },
        "Zen.Components.ShipFittingsComp": {
            "fittingList": [
                {
                    "FittedWeapon": null,
                    "IsEnabled": false,
                    "PositionOffset": {
                        "x": 0.0,
                        "y": -0.116,
                        "z": 1.65
                    },
                    "RotationOffset": {
                        "x": 0.0,
                        "y": 0.0,
                        "z": 0.0,
                        "w": 1.0
                    },
                    "WeaponFittingGO": null,
                    "WeaponTypesAllowed": "Laser"
                }
            ],
            "Id": "00000000-0000-0000-0000-000000000000",
            "$type": "Zen.Components.ShipFittingsComp"
        },
        "Zen.Components.TargetComp": {
            "target": null,
            "Id": "00000000-0000-0000-0000-000000000000",
            "$type": "Zen.Components.TargetComp"
        }
    }
}